material : "eut2.dif.spec.rfx" {
	texture[0] : "/vehicle/truck/profia_tansya/interior/textures/plastic_black.tobj"
	texture_name[0] : "texture_base"
	add_ambient : 0
	diffuse : { 0.787412 , 0.787412 , 1 }
	reflection : 0
	shininess : 100
	specular : { 0.199902 , 0.199902 , 0.199902 }
}
