material : "eut2.dif.spec.add.env.tsnmap16.rfx" {
	texture[0] : "/vehicle/truck/profia_tansya/interior/textures/st_cover_r.tobj"
	texture_name[0] : "texture_base"
	texture[1] : "/material/environment/interior_reflection.tobj"
	texture_name[1] : "texture_reflection"
	texture[2] : "/vehicle/truck/profia_tansya/interior/textures/st_cover_n.tobj"
	texture_name[2] : "texture_nmap"
	add_ambient : 0
	diffuse : { 0.119317 , 0.119317 , 0.119317 }
	env_factor : { 1 , 1 , 1 }
	fresnel : { 1 , 1 }
	reflection : 0
	shininess : 300
	specular : { 0.235482 , 0.235482 , 0.235482 }
}
