material : "eut2.dif.spec.add.env.rfx" {
	texture[0] : "/vehicle/truck/profia_tansya/interior/textures/gara5.tobj"
	texture_name[0] : "texture_base"
	texture[1] : "/material/environment/interior_reflection.tobj"
	texture_name[1] : "texture_reflection"
	add_ambient : 0
	diffuse : { 0.235482 , 0.235482 , 0.235482 }
	env_factor : { 1 , 1 , 1 }
	fresnel : { 1 , 1 }
	reflection : 0
	shininess : 300
	specular : { 0.582711 , 0.582711 , 0.582711 }
}
