material : "eut2.dif.spec.rfx" {
	texture[0] : "/vehicle/truck/profia_tansya/interior/textures/dash_leather.tobj"
	texture_name[0] : "texture_base"
	add_ambient : 0
	diffuse : { 0.237226 , 0.237226 , 0.265463 }
	reflection : 0
	shininess : 25
	specular : { 0.169014 , 0.169014 , 0.169014 }
}
